Chapter 2 SummarizedExperiments | RNA-Seq analysis with R and Bioconductor
…
dim(count_matrix)

## [1] 1474   22

A table describing the samples, available
here.

sample_metadata <- read.csv("data/sample_metadata.csv")
sample_metadata

##        sample     organism age    sex   infection  strain time     tissue mouse
## 1  GSM2545336 Mus musculus   8 Female  InfluenzaA C57BL/6    8 Cerebellum    14
## 2  GSM2545337 Mus musculus   8 Female NonInfected C57BL/6    0 Cerebellum     9
## 3  GSM2545338 Mus musculus   8 Female NonInfected C57BL/6    0 Cerebellum    10
## 4  GSM2545339 Mus musculus   8 Female  InfluenzaA C57BL/6    4 Cerebellum    15
## 5  GSM2545340 Mus musculus   8   Male  InfluenzaA C57BL/6    4 Cerebellum    18
## 6  GSM2545341 Mus musculus   8   Male  InfluenzaA C57BL/6    8 Cerebellum     6
## 7  GSM2545342 Mus musculus   8 Female  InfluenzaA C57BL/6    8 Cerebellum     5
## 8  GSM2545343 Mus musculus   8   Male NonInfected C57BL/6    0 Cerebellum    11
## 9  GSM2545344 Mus musculus   8 Female  InfluenzaA C57BL/6    4 Cerebellum    22
## 10 GSM2545345 Mus musculus   8   Male  InfluenzaA C57BL/6    4 Cerebellum    13
## 11 GSM2545346 Mus musculus   8   Male  InfluenzaA C57BL/6    8 Cerebellum    23
##  [ reached 'max' / getOption("max.print") -- omitted 11 rows ]
…
