Chapter 3 SummarizedExperiments | RNA-Seq analysis with R and Bioconductor
…
The metadata slots can grow additional co-variates (columns) without
affecting the other structures.

3.1.1 Creating a SummarizedExperimentCopy link

Let’s return to the rna dataset that we have used previously.

rna <- read_csv("data/rnaseq.csv")
rna

## # A tibble: 32,428 × 19
##    gene    sample  expre…¹ organ…²   age sex   infec…³ strain  time tissue mouse
##    <chr>   <chr>     <dbl> <chr>   <dbl> <chr> <chr>   <chr>  <dbl> <chr>  <dbl>
##  1 Asl     GSM254…    1170 Mus mu…     8 Fema… Influe… C57BL…     8 Cereb…    14
##  2 Apod    GSM254…   36194 Mus mu…     8 Fema… Influe… C57BL…     8 Cereb…    14
##  3 Cyp2d22 GSM254…    4060 Mus mu…     8 Fema… Influe… C57BL…     8 Cereb…    14
##  4 Klk6    GSM254…     287 Mus mu…     8 Fema… Influe… C57BL…     8 Cereb…    14
##  5 Fcrls   GSM254…      85 Mus mu…     8 Fema… Influe… C57BL…     8 Cereb…    14
##  6 Slc2a4  GSM254…     782 Mus mu…     8 Fema… Influe… C57BL…     8 Cereb…    14
##  7 Exd2    GSM254…    1619 Mus mu…     8 Fema… Influe… C57BL…     8 Cereb…    14
##  8 Gjc2    GSM254…     288 Mus mu…     8 Fema… Influe… C57BL…     8 Cereb…    14
##  9 Plp1    GSM254…   43217 Mus mu…     8 Fema… Influe… C57BL…     8 Cereb…    14
## 10 Gnb4    GSM254…    1071 Mus mu…     8 Fema… Influe… C57BL…     8 Cereb…    14
## # … with 32,418 more rows, 8 more variables: ENTREZID <dbl>, product <chr>,
## #   ensembl_gene_id <chr>, external_synonym <chr>, chromosome_name <chr>,
## #   gene_biotype <chr>, phenotype_description <chr>,
## #   hsapiens_homolog_associated_gene_name <chr>, and abbreviated variable names
## #   ¹​expression, ²​organism, ³​infection
…
table describing the samples

sample_metadata <- rna %>%
  select(sample, organism, age, sex, infection, strain, time, tissue, mouse)

# Many lines are repeated, as in rna, each gene (n = 1474) was analysed in each sample!
sample_metadata

## # A tibble: 32,428 × 9
##    sample     organism       age sex    infection  strain   time tissue    mouse
##    <chr>      <chr>        <dbl> <chr>  <chr>      <chr>   <dbl> <chr>     <dbl>
##  1 GSM2545336 Mus musculus     8 Female InfluenzaA C57BL/6     8 Cerebell…    14
##  2 GSM2545336 Mus musculus     8 Female InfluenzaA C57BL/6     8 Cerebell…    14
##  3 GSM2545336 Mus musculus     8 Female InfluenzaA C57BL/6     8 Cerebell…    14
##  4 GSM2545336 Mus musculus     8 Female InfluenzaA C57BL/6     8 Cerebell…    14
##  5 GSM2545336 Mus musculus     8 Female InfluenzaA C57BL/6     8 Cerebell…    14
##  6 GSM2545336 Mus musculus     8 Female InfluenzaA C57BL/6     8 Cerebell…    14
##  7 GSM2545336 Mus musculus     8 Female InfluenzaA C57BL/6     8 Cerebell…    14
##  8 GSM2545336 Mus musculus     8 Female InfluenzaA C57BL/6     8 Cerebell…    14
##  9 GSM2545336 Mus musculus     8 Female InfluenzaA C57BL/6     8 Cerebell…    14
## 10 GSM2545336 Mus musculus     8 Female InfluenzaA C57BL/6     8 Cerebell…    14
## # … with 32,418 more rows

# Remove redundancy
sample_metadata <- unique(sample_metadata)
sample_metadata

## # A tibble: 22 × 9
##    sample     organism       age sex    infection   strain   time tissue   mouse
##    <chr>      <chr>        <dbl> <chr>  <chr>       <chr>   <dbl> <chr>    <dbl>
##  1 GSM2545336 Mus musculus     8 Female InfluenzaA  C57BL/6     8 Cerebel…    14
##  2 GSM2545337 Mus musculus     8 Female NonInfected C57BL/6     0 Cerebel…     9
##  3 GSM2545338 Mus musculus     8 Female NonInfected C57BL/6     0 Cerebel…    10
##  4 GSM2545339 Mus musculus     8 Female InfluenzaA  C57BL/6     4 Cerebel…    15
##  5 GSM2545340 Mus musculus     8 Male   InfluenzaA  C57BL/6     4 Cerebel…    18
##  6 GSM2545341 Mus musculus     8 Male   InfluenzaA  C57BL/6     8 Cerebel…     6
##  7 GSM2545342 Mus musculus     8 Female InfluenzaA  C57BL/6     8 Cerebel…     5
##  8 GSM2545343 Mus musculus     8 Male   NonInfected C57BL/6     0 Cerebel…    11
##  9 GSM2545344 Mus musculus     8 Female InfluenzaA  C57BL/6     4 Cerebel…    22
## 10 GSM2545345 Mus musculus     8 Male   InfluenzaA  C57BL/6     4 Cerebel…    13
## # … with 12 more rows

table describing the genes

gene_metadata <- rna %>%
  select(gene, ENTREZID, product, ensembl_gene_id, external_synonym, chromosome_name, gene_biotype, phenotype_description, hsapiens_homolog_associated_gene_name)

# Remove redundancy
gene_metadata <- unique(gene_metadata)
gene_metadata

## # A tibble: 1,474 × 9
##    gene    ENTREZID product      ensem…¹ exter…² chrom…³ gene_…⁴ pheno…⁵ hsapi…⁶
##    <chr>      <dbl> <chr>        <chr>   <chr>   <chr>   <chr>   <chr>   <chr>  
##  1 Asl       109900 argininosuc… ENSMUS… 251000… 5       protei… abnorm… ASL    
##  2 Apod       11815 apolipoprot… ENSMUS… <NA>    16      protei… abnorm… APOD   
##  3 Cyp2d22    56448 cytochrome … ENSMUS… 2D22    15      protei… abnorm… CYP2D6 
##  4 Klk6       19144 kallikrein … ENSMUS… Bssp    7       protei… abnorm… KLK6   
##  5 Fcrls      80891 Fc receptor… ENSMUS… 281043… 3       protei… decrea… FCRL4  
##  6 Slc2a4     20528 solute carr… ENSMUS… Glut-4  11      protei… abnorm… SLC2A4 
##  7 Exd2       97827 exonuclease… ENSMUS… 493053… 12      protei… <NA>    EXD2   
##  8 Gjc2      118454 gap junctio… ENSMUS… B23038… 11      protei… Purkin… GJC2   
##  9 Plp1       18823 proteolipid… ENSMUS… DM20    X       protei… abnorm… PLP1   
## 10 Gnb4       14696 guanine nuc… ENSMUS… 672045… 3       protei… abnorm… GNB4   
## # … with 1,464 more rows, and abbreviated variable names ¹​ensembl_gene_id,
## #   ²​external_synonym, ³​chromosome_name, ⁴​gene_biotype, ⁵​phenotype_description,
## #   ⁶​hsapiens_homolog_associated_gene_name
…
